%YAML 1.1
%TAG !u! tag:unity3d.com,2011:
--- !u!21 &2100000
Material:
  serializedVersion: 6
  m_ObjectHideFlags: 0
  m_CorrespondingSourceObject: {fileID: 0}
  m_PrefabInstance: {fileID: 0}
  m_PrefabAsset: {fileID: 0}
  m_Name: EnvCube_Level03
  m_Shader: {fileID: 4800000, guid: 3fa7871ba8a394f48b33e3d822f98480, type: 3}
  m_ShaderKeywords: TCP2_DISABLE_WRAPPED_LIGHT _COLOR_ON _EMISSION
  m_LightmapFlags: 1
  m_EnableInstancingVariants: 1
  m_DoubleSidedGI: 0
  m_CustomRenderQueue: -1
  stringTagMap: {}
  disabledShaderPasses: []
  m_SavedProperties:
    serializedVersion: 3
    m_TexEnvs:
    - _BumpMap:
        m_Texture: {fileID: 0}
        m_Scale: {x: 1, y: 1}
        m_Offset: {x: 0, y: 0}
    - _DetailAlbedoMap:
        m_Texture: {fileID: 0}
        m_Scale: {x: 1, y: 1}
        m_Offset: {x: 0, y: 0}
    - _DetailMask:
        m_Texture: {fileID: 0}
        m_Scale: {x: 1, y: 1}
        m_Offset: {x: 0, y: 0}
    - _DetailNormalMap:
        m_Texture: {fileID: 0}
        m_Scale: {x: 1, y: 1}
        m_Offset: {x: 0, y: 0}
    - _EmissionMap:
        m_Texture: {fileID: 0}
        m_Scale: {x: 1, y: 1}
        m_Offset: {x: 0, y: 0}
    - _MainTex:
        m_Texture: {fileID: 0}
        m_Scale: {x: 1, y: 1}
        m_Offset: {x: 0, y: 0}
    - _MetallicGlossMap:
        m_Texture: {fileID: 0}
        m_Scale: {x: 1, y: 1}
        m_Offset: {x: 0, y: 0}
    - _OcclusionMap:
        m_Texture: {fileID: 0}
        m_Scale: {x: 1, y: 1}
        m_Offset: {x: 0, y: 0}
    - _ParallaxMap:
        m_Texture: {fileID: 0}
        m_Scale: {x: 1, y: 1}
        m_Offset: {x: 0, y: 0}
    - _Ramp:
        m_Texture: {fileID: 0}
        m_Scale: {x: 1, y: 1}
        m_Offset: {x: 0, y: 0}
    m_Floats:
    - _BlendOp: 0
    - _Brightness: 1
    - _BumpScale: 1
    - _Cull: 2
    - _Cutoff: 0.449
    - _DetailNormalMapScale: 1
    - _DstBlend: 0
    - _GlossMapScale: 1
    - _Glossiness: 0.392
    - _GlossyReflections: 1
    - _Metallic: 0.275
    - _Mode: 0
    - _OcclusionStrength: 1
    - _Parallax: 0.02
    - _RampSmooth: 1
    - _RampSmoothAdd: 0.841
    - _RampThreshold: 0.413
    - _ReceiveShadowsPower: 0.498
    - _RimMax: 1
    - _RimMin: 0.6
    - _RimStrength: 0.5
    - _Saturation: 1
    - _SmoothnessTextureChannel: 0
    - _SpecBlend: 1
    - _SpecSmooth: 1
    - _SpecularHighlights: 1
    - _SrcBlend: 1
    - _TCP2_DISABLE_WRAPPED_LIGHT: 1
    - _TCP2_RAMPTEXT: 0
    - _TCP2_SPEC_TOON: 0
    - _TCP2_STYLIZED_FRESNEL: 0
    - _ToggleColor: 1
    - _ToggleEmission: 0
    - _ToggleMainTex: 0
    - _ToggleReceiveShadows: 0
    - _ToggleSaturationBrightness: 0
    - _UVSec: 0
    - _ZTest: 2
    - _ZWrite: 1
    m_Colors:
    - _Color: {r: 0.60315806, g: 0.56381273, b: 0.6603774, a: 1}
    - _EmissionColor: {r: 0, g: 0, b: 0, a: 1}
    - _HColor: {r: 1, g: 1, b: 1, a: 1}
    - _RimColor: {r: 0.7924528, g: 0.7924528, b: 0.7924528, a: 0.6}
    - _SColor: {r: 0.25, g: 0.25, b: 0.25, a: 1}
  m_BuildTextureStacks: []
