%YAML 1.1
%TAG !u! tag:unity3d.com,2011:
--- !u!21 &2100000
Material:
  serializedVersion: 6
  m_ObjectHideFlags: 0
  m_CorrespondingSourceObject: {fileID: 0}
  m_PrefabInstance: {fileID: 0}
  m_PrefabAsset: {fileID: 0}
  m_Name: Column_1_Level02
  m_Shader: {fileID: 4800000, guid: d8dc5b44f974a407888d976711c36e82, type: 3}
  m_ShaderKeywords: _EMISSION _HEIGHTFOGCOLOR
  m_LightmapFlags: 4
  m_EnableInstancingVariants: 0
  m_DoubleSidedGI: 0
  m_CustomRenderQueue: -1
  stringTagMap: {}
  disabledShaderPasses: []
  m_SavedProperties:
    serializedVersion: 3
    m_TexEnvs:
    - _BumpMap:
        m_Texture: {fileID: 0}
        m_Scale: {x: 1, y: 1}
        m_Offset: {x: 0, y: 0}
    - _DetailAlbedoMap:
        m_Texture: {fileID: 0}
        m_Scale: {x: 1, y: 1}
        m_Offset: {x: 0, y: 0}
    - _DetailMask:
        m_Texture: {fileID: 0}
        m_Scale: {x: 1, y: 1}
        m_Offset: {x: 0, y: 0}
    - _DetailNormalMap:
        m_Texture: {fileID: 0}
        m_Scale: {x: 1, y: 1}
        m_Offset: {x: 0, y: 0}
    - _EmissionMap:
        m_Texture: {fileID: 0}
        m_Scale: {x: 1, y: 1}
        m_Offset: {x: 0, y: 0}
    - _MainTex:
        m_Texture: {fileID: 0}
        m_Scale: {x: 1, y: 3}
        m_Offset: {x: 0, y: 0}
    - _MetallicGlossMap:
        m_Texture: {fileID: 0}
        m_Scale: {x: 1, y: 1}
        m_Offset: {x: 0, y: 0}
    - _OcclusionMap:
        m_Texture: {fileID: 0}
        m_Scale: {x: 1, y: 1}
        m_Offset: {x: 0, y: 0}
    - _ParallaxMap:
        m_Texture: {fileID: 0}
        m_Scale: {x: 1, y: 1}
        m_Offset: {x: 0, y: 0}
    - _Ramp:
        m_Texture: {fileID: 2800000, guid: abc83c21d57d4a74cabe12065fa1a8b2, type: 3}
        m_Scale: {x: 1, y: 1}
        m_Offset: {x: 0, y: 0}
    m_Floats:
    - _Brightness: 1
    - _BumpScale: 1
    - _Cutoff: 0.5
    - _DetailNormalMapScale: 1
    - _DstBlend: 0
    - _GlossMapScale: 1
    - _Glossiness: 0
    - _GlossyReflections: 1
    - _HeightFogEnd: 58.1
    - _HeightFogStart: -17.1
    - _Metallic: 0.309
    - _Mode: 0
    - _OcclusionStrength: 1
    - _Offset: 0
    - _Parallax: 0.02
    - _RampSmooth: 0.108
    - _RampThreshold: 0.758
    - _Saturation: 1
    - _SmoothnessTextureChannel: 0
    - _SpecularHighlights: 1
    - _SpeedX: 0
    - _SpeedY: 0
    - _SrcBlend: 1
    - _ToggleSaturationBrightness: 0
    - _UVSec: 0
    - _Width: 0.04
    - _ZWrite: 1
    m_Colors:
    - _Color: {r: 0.9150943, g: 0.4704966, b: 0.7918025, a: 1}
    - _ColorMain: {r: 0.9411765, g: 0.9411765, b: 0.627451, a: 1}
    - _ColorSec: {r: 0.7735849, g: 0.762638, b: 0.762638, a: 1}
    - _EmissionColor: {r: 0.3679245, g: 0.3679245, b: 0.3679245, a: 1}
    - _HColor: {r: 1, g: 1, b: 1, a: 1}
    - _HeightFogColor: {r: 0.7924528, g: 0.7139551, b: 0.7871002, a: 1}
    - _SColor: {r: 0.6037736, g: 0.6037736, b: 0.6037736, a: 1}
  m_BuildTextureStacks: []
